{ "height":100,
 "layers":[
  {
   "data":[2827, 2827, 2827, 2827, 2827, 2827, 2827, 2827, 2827, 2827, 2827, 2827, 2827, 2827, 2827, 2827, 2827, 2827, 2827, 2827, 2827, 2827, 2827, 2827, 2827, 2827, 2827, 2827, 2827, 2827, 2827, 2827, 2827, 2827, 2827, 2827, 2827, 2827, 2827, 2827, 2827, 2827, 2827, 2827, 2827, 2827, 2827, 2827, 2827, 2827, 2827, 2827, 2827, 2827, 2827, 2827, 2827, 2827, 2827, 2827, 2827, 2827, 2827, 2827, 2827, 2827, 2827, 2827, 2827, 2827, 2827, 2827, 2827, 2827, 2827, 2827, 2827, 2827, 2827, 2827, 2827, 2827, 2827, 2827, 2827, 2827, 2827, 2827, 2827, 2827, 2827, 2827, 2827, 2827, 2827, 2827, 2827, 2827, 2827, 2827, 2827, 2827, 2827, 2827, 2827, 2827, 2827, 2827, 2827, 2827, 2827, 2827, 2827, 2827, 2827, 2827, 2827, 2827, 2827, 2827, 2827, 2827, 2827, 2827, 2827, 2827, 2827, 2827, 2827, 2827, 2827, 2827, 2827, 2827, 2827, 2827, 2827, 2827, 2827, 2827, 2827, 2827, 2827, 2827, 2827, 2827, 2827, 2827, 2827, 2827, 2827, 2827, 2827, 2827, 2827, 2827, 2827, 2827, 2827, 2827, 2827, 2827, 2827, 2827, 2827, 2827, 2827, 2827, 2827, 2827, 2827, 2827, 2827, 2827, 2827, 2827, 2827, 2827, 2827, 2827, 2827, 2827, 2827, 2827, 2827, 2827, 2827, 2827, 2827, 2827, 2827, 2827, 2827, 2827, 2827, 2827, 2827, 2827, 2827, 2827, 2827, 2827, 2827, 2827, 2827, 2827, 2827, 2827, 2827, 2827, 2827, 2827, 2827, 2827, 2827, 2827, 2827, 2827, 2827, 2827, 2827, 2827, 2827, 2827, 2827, 2827, 2827, 2827, 2827, 2827, 2827, 2827, 2827, 2827, 2827, 2827, 2827, 2827, 2827, 2827, 2827, 2827, 2827, 2827, 2827, 2827, 2827, 2827, 2827, 2827, 2827, 2827, 2827, 2827, 2827, 2827, 2827, 2827, 2827, 2827, 2827, 2827, 2827, 2827, 2827, 2827, 2827, 2827, 2827, 2827, 2827, 2827, 2827, 2827, 2827, 2827, 2827, 2827, 2827, 2827, 2827, 2827, 2827, 2827, 2827, 2827, 2827, 2827, 2827, 2827, 2827, 2827, 2827, 2827, 2827, 2827, 2827, 2827, 2827, 2827, 2827, 2827, 2827, 2827, 2827, 2827, 2827, 2827, 2827, 2827, 2827, 2827, 2827, 2827, 2827, 2827, 2827, 2827, 2827, 2827, 2827, 2827, 2827, 2827, 2827, 2827, 2827, 2827, 2827, 2827, 2827, 2827, 2827, 2827, 2827, 2827, 2827, 2827, 2827, 2827, 2827, 2827, 2827, 2827, 2827, 2827, 2827, 2827, 2827, 2827, 2827, 2827, 2827, 2827, 2827, 2827, 2827, 2827, 2827, 2827, 2827, 2827, 2827, 2827, 2827, 2827, 2827, 2827, 2827, 2827, 2827, 2827, 2827, 2827, 2827, 2827, 2827, 2827, 2827, 2827, 2827, 2827, 2827, 2827, 2827, 2827, 2827, 2827, 2827, 2827, 2827, 2827, 2827, 2827, 2827, 2827, 2827, 2827, 2827, 2827, 2827, 2827, 2827, 2827, 2827, 2827, 2827, 2827, 2827, 2827, 2827, 2827, 2827, 2827, 2827, 2827, 2827, 2827, 2827, 2827, 2827, 2827, 2827, 2827, 2827, 2827, 2827, 2827, 2827, 2827, 2827, 2827, 2827, 2827, 2827, 2827, 2827, 2827, 2827, 2827, 2827, 2827, 2827, 2827, 2827, 2827, 2827, 2827, 2827, 2827, 2827, 2827, 2827, 2827, 2827, 2827, 2827, 2827, 2827, 2827, 2827, 2827, 2827, 2827, 2827, 2827, 2827, 2827, 2827, 2827, 2827, 2827, 2827, 2827, 2827, 2827, 2827, 2827, 2827, 2827, 2827, 2827, 2827, 2827, 2827, 2827, 2827, 2827, 2827, 2827, 2827, 2827, 2827, 2827, 2827, 2827, 2827, 2827, 2827, 2827, 2827, 2827, 2827, 2827, 2827, 2827, 2827, 2827, 2827, 2827, 2827, 2827, 2827, 2827, 2827, 2827, 2827, 2827, 2827, 2827, 2827, 2827, 2827, 2827, 2827, 2827, 2827, 2827, 2827, 2827, 2827, 2827, 2827, 2827, 2827, 2827, 2827, 2827, 2827, 2827, 2827, 2827, 2827, 2827, 2827, 2827, 2827, 2827, 2827, 2827, 2827, 2827, 2827, 2827, 2827, 2827, 2827, 2827, 2827, 2827, 2827, 2827, 2827, 2827, 2827, 2827, 2827, 2827, 2827, 2827, 2827, 2827, 2827, 2827, 2827, 2827, 2827, 2827, 2827, 2827, 2827, 2827, 2827, 2827, 2827, 2827, 2827, 2827, 2827, 2827, 2827, 2827, 2827, 2827, 2827, 2827, 2827, 2827, 2827, 2827, 2827, 2827, 2827, 2827, 2827, 2827, 2827, 2827, 2827, 2827, 2827, 2827, 2827, 2827, 2827, 2827, 2827, 2827, 2827, 2827, 2827, 2827, 2827, 2827, 2827, 2827, 2827, 2827, 2827, 2827, 2827, 2827, 2827, 2827, 2827, 2827, 2827, 2827, 2827, 2827, 2827, 2827, 2827, 2827, 2827, 2827, 2827, 2827, 2827, 2827, 2827, 2827, 2827, 2827, 2827, 2827, 2827, 2827, 2827, 2827, 2827, 2827, 2827, 2827, 2827, 2827, 2827, 2827, 2827, 2827, 2827, 2827, 2827, 2827, 2827, 2827, 2827, 2827, 2827, 2827, 2827, 2827, 2827, 2827, 2827, 2827, 2827, 2827, 2827, 2827, 2827, 2827, 2827, 2827, 2827, 2827, 2827, 2827, 2827, 2827, 2827, 2827, 2827, 2827, 2827, 2827, 2827, 2827, 2827, 2827, 2827, 2827, 2827, 2827, 2827, 2827, 2827, 2827, 2827, 2827, 2827, 2827, 2827, 2827, 2827, 2827, 2827, 2827, 2827, 2827, 2827, 2827, 2827, 2827, 2827, 2827, 2827, 2827, 2827, 2827, 2827, 2827, 2827, 2827, 2827, 2827, 2827, 2827, 2827, 2827, 2827, 2827, 2827, 2827, 2827, 2827, 2827, 2827, 2827, 2827, 2827, 2827, 2827, 2827, 2827, 2827, 2827, 2827, 2827, 2827, 2827, 2827, 2827, 2827, 2827, 2827, 2827, 2827, 2827, 2827, 2827, 2827, 2827, 2827, 2827, 2827, 2827, 2827, 2827, 2827, 2827, 2827, 2827, 2827, 2827, 2827, 2827, 2827, 2827, 2827, 2827, 2827, 2827, 2827, 2827, 2827, 2827, 2827, 2827, 2827, 2827, 2827, 2827, 2827, 2827, 2827, 2827, 2827, 2827, 2827, 2827, 2827, 2827, 2827, 2827, 2827, 2827, 2827, 2827, 2827, 2827, 2827, 2827, 2827, 2827, 2827, 2827, 2827, 2827, 2827, 2827, 2827, 2827, 2827, 2827, 2827, 2827, 2827, 2827, 2827, 2827, 2827, 2827, 2827, 2827, 2827, 2827, 2827, 2827, 2827, 2827, 2827, 2827, 2827, 2827, 2827, 2827, 2827, 2827, 2827, 2827, 2827, 2827, 2827, 2827, 2827, 2827, 2827, 2827, 2827, 2827, 2827, 2827, 2827, 2827, 2827, 2827, 2827, 2827, 2827, 2827, 2827, 2827, 2827, 2827, 2827, 2827, 2827, 2827, 2827, 2827, 2827, 2827, 2827, 2827, 2827, 2827, 2827, 2827, 2827, 2827, 2827, 2827, 2827, 2827, 2827, 2827, 2827, 2827, 2827, 2827, 2827, 2827, 2827, 2827, 2827, 2827, 2827, 2827, 2827, 2827, 2827, 2827, 2827, 2827, 2827, 2827, 2827, 2827, 2827, 2827, 2827, 2827, 2827, 2827, 2827, 2827, 2827, 2827, 2827, 2827, 2827, 2827, 2827, 2827, 2827, 2827, 2827, 2827, 2827, 2827, 2827, 2827, 2827, 2827, 2827, 2827, 2827, 2827, 2827, 2827, 2827, 2827, 2827, 2827, 2827, 2827, 2827, 2827, 2827, 2827, 2827, 2827, 2827, 2827, 2827, 2827, 2827, 2827, 2827, 2827, 2827, 2827, 2827, 2827, 2827, 2827, 2827, 2827, 2827, 2827, 2827, 2827, 2827, 2827, 2827, 2827, 2827, 2827, 2827, 2827, 2827, 2827, 2827, 2827, 2827, 2827, 2827, 2827, 2827, 2827, 2827, 2827, 2827, 2827, 2827, 2827, 2827, 2827, 2827, 2827, 2827, 2827, 2827, 2827, 2827, 2827, 2827, 2827, 2827, 2827, 2827, 2827, 2827, 2827, 2827, 2827, 2827, 2827, 2827, 2827, 2827, 2827, 2827, 2827, 2827, 2827, 2827, 2827, 2827, 2827, 2827, 2827, 2827, 2827, 2827, 2827, 2827, 2827, 2827, 2827, 2827, 2827, 2827, 2827, 2827, 2827, 2827, 2827, 2827, 2827, 2827, 2827, 2827, 2827, 2827, 2827, 2827, 2827, 2827, 2827, 2827, 2827, 2827, 2827, 2827, 2827, 2827, 2827, 2827, 2827, 2827, 2827, 2827, 2827, 2827, 2827, 2827, 2827, 2827, 2827, 2827, 2827, 2827, 2827, 2827, 2827, 2827, 2827, 2827, 2827, 2827, 2827, 2827, 2827, 2827, 2827, 2827, 2827, 2827, 2827, 2827, 2827, 2827, 2827, 2827, 2827, 2827, 2827, 2827, 2827, 2827, 2827, 2827, 2827, 2827, 2827, 2827, 2827, 2827, 2827, 2827, 2827, 2827, 2827, 2827, 2827, 2827, 2827, 2827, 2827, 2827, 2827, 2827, 2827, 2827, 2827, 2827, 2827, 2827, 2827, 2827, 2827, 2827, 2827, 2827, 2827, 2827, 2827, 2827, 2827, 2827, 2827, 2827, 2827, 2827, 2827, 2827, 2827, 2827, 2827, 2827, 2827, 2827, 2827, 2827, 2827, 2827, 2827, 2827, 2827, 2827, 2827, 2827, 2827, 2827, 2827, 2827, 2827, 2827, 2827, 2827, 2827, 2827, 2827, 2827, 2827, 2827, 2827, 2827, 2827, 2827, 2827, 2827, 2827, 2827, 2827, 2827, 2827, 2827, 2827, 2827, 2827, 2827, 2827, 2827, 2827, 2827, 2827, 2827, 2827, 2827, 2827, 2827, 2827, 2827, 2827, 2827, 2827, 2827, 2827, 2827, 2827, 2827, 2827, 2827, 2827, 2827, 2827, 2827, 2827, 2827, 2827, 2827, 2827, 2827, 2827, 2827, 2827, 2827, 2827, 2827, 2827, 2827, 2827, 2827, 2827, 2827, 2827, 2827, 2827, 2827, 2827, 2827, 2827, 2827, 2827, 2827, 2827, 2827, 2827, 2827, 2827, 2827, 2827, 2827, 2827, 2827, 2827, 2827, 2827, 2827, 2827, 2827, 2827, 2827, 2827, 2827, 2827, 2827, 2827, 2827, 2827, 2827, 2827, 2827, 2827, 2827, 2827, 2827, 2827, 2827, 2827, 2827, 2827, 2827, 2827, 2827, 2827, 2827, 2827, 2827, 2827, 2827, 2827, 2827, 2827, 2827, 2827, 2827, 2827, 2827, 2827, 2827, 2827, 2827, 2827, 2827, 2827, 2827, 2827, 2827, 2827, 2827, 2827, 2827, 2827, 2827, 2827, 2827, 2827, 2827, 2827, 2827, 2827, 2827, 2827, 2827, 2827, 2827, 2827, 2827, 2827, 2827, 2827, 2827, 2827, 2827, 2827, 2827, 2827, 2827, 2827, 2827, 2827, 2827, 2827, 2827, 2827, 2827, 2827, 2827, 2827, 2827, 2827, 2827, 2827, 2827, 2827, 2827, 2827, 2827, 2827, 2827, 2827, 2827, 2827, 2827, 2827, 2827, 2827, 2827, 2827, 2827, 2827, 2827, 2827, 2827, 2827, 2827, 2827, 2827, 2827, 2827, 2827, 2827, 2827, 2827, 2827, 2827, 2827, 2827, 2827, 2827, 2827, 2827, 2827, 2827, 2827, 2827, 2827, 2827, 2827, 2827, 2827, 2827, 2827, 2827, 2827, 2827, 2827, 2827, 2827, 2827, 2827, 2827, 2827, 2827, 2827, 2827, 2827, 2827, 2827, 2827, 2827, 2827, 2827, 2827, 2827, 2827, 2827, 2827, 2827, 2827, 2827, 2827, 2827, 2827, 2827, 2827, 2827, 2827, 2827, 2827, 2827, 2827, 2827, 2827, 2827, 2827, 2827, 2827, 2827, 2827, 2827, 2827, 2827, 2827, 2827, 2827, 2827, 2827, 2827, 2827, 2827, 2827, 2827, 2827, 2827, 2827, 2827, 2827, 2827, 2827, 2827, 2827, 2827, 2827, 2827, 2827, 2827, 2827, 2827, 2827, 2827, 2827, 2827, 2827, 2827, 2827, 2827, 2827, 2827, 2827, 2827, 2827, 2827, 2827, 2827, 2827, 2827, 2827, 2827, 2827, 2827, 2827, 2827, 2827, 2827, 2827, 2827, 2827, 2827, 2827, 2827, 2827, 2827, 2827, 2827, 2827, 2827, 2827, 2827, 2827, 2827, 2827, 2827, 2827, 2827, 2827, 2827, 2827, 2827, 2827, 2827, 2827, 2827, 2827, 2827, 2827, 2827, 2827, 2827, 2827, 2827, 2827, 2827, 2827, 2827, 2827, 2827, 2827, 2827, 2827, 2827, 2827, 2827, 2827, 2827, 2827, 2827, 2827, 2827, 2827, 2827, 2827, 2827, 2827, 2827, 2827, 2827, 2827, 2827, 2827, 2827, 2827, 2827, 2827, 2827, 2827, 2827, 2827, 2827, 2827, 2827, 2827, 2827, 2827, 2827, 2827, 2827, 2827, 2827, 2827, 2827, 2827, 2827, 2827, 2827, 2827, 2827, 2827, 2827, 2827, 2827, 2827, 2827, 2827, 2827, 2827, 2827, 2827, 2827, 2827, 2827, 2827, 2827, 2827, 2827, 2827, 2827, 2827, 2827, 2827, 2827, 2827, 2827, 2827, 2827, 2827, 2827, 2827, 2827, 2827, 2827, 2827, 2827, 2827, 2827, 2827, 2827, 2827, 2827, 2827, 2827, 2827, 2827, 2827, 2827, 2827, 2827, 2827, 2827, 2827, 2827, 2827, 2827, 2827, 2827, 2827, 2827, 2827, 2827, 2827, 2827, 2827, 2827, 2827, 2827, 2827, 2827, 2827, 2827, 2827, 2827, 2827, 2827, 2827, 2827, 2827, 2827, 2827, 2827, 2827, 2827, 2827, 2827, 2827, 2827, 2827, 2827, 2827, 2827, 2827, 2827, 2827, 2827, 2827, 2827, 2827, 2827, 2827, 2827, 2827, 2827, 2827, 2827, 2827, 2827, 2827, 2827, 2827, 2827, 2827, 2827, 2827, 2827, 2827, 2827, 2827, 2827, 2827, 2827, 2827, 2827, 2827, 2827, 2827, 2827, 2827, 2827, 2827, 2827, 2827, 2827, 2827, 2827, 2827, 2827, 2827, 2827, 2827, 2827, 2827, 2827, 2827, 2827, 2827, 2827, 2827, 2827, 2827, 2827, 2827, 2827, 2827, 2827, 2827, 2827, 2827, 2827, 2827, 2827, 2827, 2827, 2827, 2827, 2827, 2827, 2827, 2827, 2827, 2827, 2827, 2827, 2827, 2827, 2827, 2827, 2827, 2827, 2827, 2827, 2827, 2827, 2827, 2827, 2827, 2827, 2827, 2827, 2827, 2827, 2827, 2827, 2827, 2827, 2827, 2827, 2827, 2827, 2827, 2827, 2827, 2827, 2827, 2827, 2827, 2827, 2827, 2827, 2827, 2827, 2827, 2827, 2827, 2827, 2827, 2827, 2827, 2827, 2827, 2827, 2827, 2827, 2827, 2827, 2827, 2827, 2827, 2827, 2827, 2827, 2827, 2827, 2827, 2827, 2827, 2827, 2827, 2827, 2827, 2827, 2827, 2827, 2827, 2827, 2827, 2827, 2827, 2827, 2827, 2827, 2827, 2827, 2827, 2827, 2827, 2827, 2827, 2827, 2827, 2827, 2827, 2827, 2827, 2827, 2827, 2827, 2827, 2827, 2827, 2827, 2827, 2827, 2827, 2827, 2827, 2827, 2827, 2827, 2827, 2827, 2827, 2827, 2827, 2827, 2827, 2827, 2827, 2827, 2827, 2827, 2827, 2827, 2827, 2827, 2827, 2827, 2827, 2827, 2827, 2827, 2827, 2827, 2827, 2827, 2827, 2827, 2827, 2827, 2827, 2827, 2827, 2827, 2827, 2827, 2827, 2827, 2827, 2827, 2827, 2827, 2827, 2827, 2827, 2827, 2827, 2827, 2827, 2827, 2827, 2827, 2827, 2827, 2827, 2827, 2827, 2827, 2827, 2827, 2827, 2827, 2827, 2827, 2827, 2827, 2827, 2827, 2827, 2827, 2827, 2827, 2827, 2827, 2827, 2827, 2827, 2827, 2827, 2827, 2827, 2827, 2827, 2827, 2827, 2827, 2827, 2827, 2827, 2827, 2827, 2827, 2827, 2827, 2827, 2827, 2827, 2827, 2827, 2827, 2827, 2827, 2827, 2827, 2827, 2827, 2827, 2827, 2827, 2827, 2827, 2827, 2827, 2827, 2827, 2827, 2827, 2827, 2827, 2827, 2827, 2827, 2827, 2827, 2827, 2827, 2827, 2827, 2827, 2827, 2827, 2827, 2827, 2827, 2827, 2827, 2827, 2827, 2827, 2827, 2827, 2827, 2827, 2827, 2827, 2827, 2827, 2827, 2827, 2827, 2827, 2827, 2827, 2827, 2827, 2827, 2827, 2827, 2827, 2827, 2827, 2827, 2827, 2827, 2827, 2827, 2827, 2827, 2827, 2827, 2827, 2827, 2827, 2827, 2827, 2827, 2827, 2827, 2827, 2827, 2827, 2827, 2827, 2827, 2827, 2827, 2827, 2827, 2827, 2827, 2827, 2827, 2827, 2827, 2827, 2827, 2827, 2827, 2827, 2827, 2827, 2827, 2827, 2827, 2827, 2827, 2827, 2827, 2827, 2827, 2827, 2827, 2827, 2827, 2827, 2827, 2827, 2827, 2827, 2827, 2827, 2827, 2827, 2827, 2827, 2827, 2827, 2827, 2827, 2827, 2827, 2827, 2827, 2827, 2827, 2827, 2827, 2827, 2827, 2827, 2827, 2827, 2827, 2827, 2827, 2827, 2827, 2827, 2827, 2827, 2827, 2827, 2827, 2827, 2827, 2827, 2827, 2827, 2827, 2827, 2827, 2827, 2827, 2827, 2827, 2827, 2827, 2827, 2827, 2827, 2827, 2827, 2827, 2827, 2827, 2827, 2827, 2827, 2827, 2827, 2827, 2827, 2827, 2827, 2827, 2827, 2827, 2827, 2827, 2827, 2827, 2827, 2827, 2827, 2827, 2827, 2827, 2827, 2827, 2827, 2827, 2827, 2827, 2827, 2827, 2827, 2827, 2827, 2827, 2827, 2827, 2827, 2827, 2827, 2827, 2827, 2827, 2827, 2827, 2827, 2827, 2827, 2827, 2827, 2827, 2827, 2827, 2827, 2827, 2827, 2827, 2827, 2827, 2827, 2827, 2827, 2827, 2827, 2827, 2827, 2827, 2827, 2827, 2827, 2827, 2827, 2827, 2827, 2827, 2827, 2827, 2827, 2827, 2827, 2827, 2827, 2827, 2827, 2827, 2827, 2827, 2827, 2827, 2827, 2827, 2827, 2827, 2827, 2827, 2827, 2827, 2827, 2827, 2827, 2827, 2827, 2827, 2827, 2827, 2827, 2827, 2827, 2827, 2827, 2827, 2827, 2827, 2827, 2827, 2827, 2827, 2827, 2827, 2827, 2827, 2827, 2827, 2827, 2827, 2827, 2827, 2827, 2827, 2827, 2827, 2827, 2827, 2827, 2827, 2827, 2827, 2827, 2827, 2827, 2827, 2827, 2827, 2827, 2827, 2827, 2827, 2827, 2827, 2827, 2827, 2827, 2827, 2827, 2827, 2827, 2827, 2827, 2827, 2827, 2827, 2827, 2827, 2827, 2827, 2827, 2827, 2827, 2827, 2827, 2827, 2827, 2827, 2827, 2827, 2827, 2827, 2827, 2827, 2827, 2827, 2827, 2827, 2827, 2827, 2827, 2827, 2827, 2827, 2827, 2827, 2827, 2827, 2827, 2827, 2827, 2827, 2827, 2827, 2827, 2827, 2827, 2827, 2827, 2827, 2827, 2827, 2827, 2827, 2827, 2827, 2827, 2827, 2827, 2827, 2827, 2827, 2827, 2827, 2827, 2827, 2827, 2827, 2827, 2827, 2827, 2827, 2827, 2827, 2827, 2827, 2827, 2827, 2827, 2827, 2827, 2827, 2827, 2827, 2827, 2827, 2827, 2827, 2827, 2827, 2827, 2827, 2827, 2827, 2827, 2827, 2827, 2827, 2827, 2827, 2827, 2827, 2827, 2827, 2827, 2827, 2827, 2827, 2827, 2827, 2827, 2827, 2827, 2827, 2827, 2827, 2827, 2827, 2827, 2827, 2827, 2827, 2827, 2827, 2827, 2827, 2827, 2827, 2827, 2827, 2827, 2827, 2827, 2827, 2827, 2827, 2827, 2827, 2827, 2827, 2827, 2827, 2827, 2827, 2827, 2827, 2827, 2827, 2827, 2827, 2827, 2827, 2827, 2827, 2827, 2827, 2827, 2827, 2827, 2827, 2827, 2827, 2827, 2827, 2827, 2827, 2827, 2827, 2827, 2827, 2827, 2827, 2827, 2827, 2827, 2827, 2827, 2827, 2827, 2827, 2827, 2827, 2827, 2827, 2827, 2827, 2827, 2827, 2827, 2827, 2827, 2827, 2827, 2827, 2827, 2827, 2827, 2827, 2827, 2827, 2827, 2827, 2827, 2827, 2827, 2827, 2827, 2827, 2827, 2827, 2827, 2827, 2827, 2827, 2827, 2827, 2827, 2827, 2827, 2827, 2827, 2827, 2827, 2827, 2827, 2827, 2827, 2827, 2827, 2827, 2827, 2827, 2827, 2827, 2827, 2827, 2827, 2827, 2827, 2827, 2827, 2827, 2827, 2827, 2827, 2827, 2827, 2827, 2827, 2827, 2827, 2827, 2827, 2827, 2827, 2827, 2827, 2827, 2827, 2827, 2827, 2827, 2827, 2827, 2827, 2827, 2827, 2827, 2827, 2827, 2827, 2827, 2827, 2827, 2827, 2827, 2827, 2827, 2827, 2827, 2827, 2827, 2827, 2827, 2827, 2827, 2827, 2827, 2827, 2827, 2827, 2827, 2827, 2827, 2827, 2827, 2827, 2827, 2827, 2827, 2827, 2827, 2827, 2827, 2827, 2827, 2827, 2827, 2827, 2827, 2827, 2827, 2827, 2827, 2827, 2827, 2827, 2827, 2827, 2827, 2827, 2827, 2827, 2827, 2827, 2827, 2827, 2827, 2827, 2827, 2827, 2827, 2827, 2827, 2827, 2827, 2827, 2827, 2827, 2827, 2827, 2827, 2827, 2827, 2827, 2827, 2827, 2827, 2827, 2827, 2827, 2827, 2827, 2827, 2827, 2827, 2827, 2827, 2827, 2827, 2827, 2827, 2827, 2827, 2827, 2827, 2827, 2827, 2827, 2827, 2827, 2827, 2827, 2827, 2827, 2827, 2827, 2827, 2827, 2827, 2827, 2827, 2827, 2827, 2827, 2827, 2827, 2827, 2827, 2827, 2827, 2827, 2827, 2827, 2827, 2827, 2827, 2827, 2827, 2827, 2827, 2827, 2827, 2827, 2827, 2827, 2827, 2827, 2827, 2827, 2827, 2827, 2827, 2827, 2827, 2827, 2827, 2827, 2827, 2827, 2827, 2827, 2827, 2827, 2827, 2827, 2827, 2827, 2827, 2827, 2827, 2827, 2827, 2827, 2827, 2827, 2827, 2827, 2827, 2827, 2827, 2827, 2827, 2827, 2827, 2827, 2827, 2827, 2827, 2827],
   "height":100,
   "name":"Tile Layer 1",
   "offsetx":-3,
   "offsety":-182,
   "opacity":1,
   "type":"tilelayer",
   "visible":true,
   "width":28,
   "x":0,
   "y":0
  },
  {
   "data":[47, 47, 47, 47, 47, 47, 47, 47, 47, 47, 47, 47, 47, 47, 47, 47, 47, 47, 47, 47, 47, 47, 47, 47, 47, 47, 47, 47, 0, 0, 0, 0, 0, 0, 0, 0, 0, 0, 0, 0, 0, 0, 0, 0, 0, 0, 0, 0, 0, 0, 0, 0, 0, 0, 0, 0, 0, 0, 0, 0, 0, 0, 0, 0, 0, 0, 0, 0, 0, 0, 0, 0, 0, 0, 0, 0, 0, 0, 0, 0, 0, 0, 0, 0, 0, 0, 0, 0, 0, 0, 0, 0, 0, 0, 0, 0, 0, 591, 0, 0, 0, 0, 0, 0, 0, 1046, 0, 0, 0, 0, 0, 0, 0, 0, 0, 0, 0, 0, 0, 0, 0, 0, 0, 0, 0, 0, 0, 0, 0, 0, 0, 0, 0, 0, 0, 0, 0, 0, 0, 0, 0, 0, 591, 0, 0, 0, 0, 0, 0, 0, 0, 0, 0, 0, 0, 0, 0, 0, 0, 0, 0, 0, 0, 0, 0, 0, 1046, 0, 0, 0, 0, 0, 0, 0, 0, 0, 0, 0, 0, 0, 0, 0, 0, 0, 0, 0, 0, 0, 0, 0, 0, 0, 0, 0, 0, 0, 0, 0, 0, 0, 0, 0, 0, 591, 0, 0, 0, 0, 0, 0, 0, 0, 0, 0, 591, 0, 0, 0, 0, 0, 0, 0, 0, 0, 0, 0, 0, 0, 0, 0, 0, 0, 0, 0, 0, 0, 0, 0, 0, 0, 0, 0, 0, 0, 0, 0, 0, 0, 0, 0, 0, 0, 0, 0, 0, 0, 0, 0, 0, 0, 0, 0, 0, 0, 0, 0, 0, 0, 0, 0, 0, 0, 0, 0, 0, 0, 1046, 0, 0, 0, 0, 0, 0, 0, 0, 0, 0, 0, 0, 0, 0, 0, 0, 0, 0, 0, 0, 0, 0, 0, 0, 0, 0, 0, 0, 0, 0, 0, 0, 591, 0, 0, 0, 0, 0, 0, 0, 0, 0, 0, 0, 0, 0, 0, 0, 0, 0, 0, 0, 0, 0, 0, 0, 0, 0, 0, 0, 0, 0, 0, 0, 0, 0, 0, 0, 0, 0, 0, 0, 591, 0, 0, 0, 0, 0, 0, 0, 0, 0, 0, 0, 0, 0, 0, 0, 0, 0, 0, 0, 0, 0, 0, 0, 0, 0, 0, 0, 0, 0, 0, 0, 0, 0, 0, 0, 1046, 0, 0, 0, 0, 0, 0, 0, 0, 0, 0, 0, 0, 0, 0, 0, 0, 0, 0, 0, 0, 0, 0, 0, 0, 0, 0, 0, 0, 0, 0, 0, 0, 0, 0, 0, 0, 0, 0, 0, 0, 0, 0, 591, 0, 0, 0, 0, 0, 0, 0, 0, 0, 0, 0, 0, 0, 0, 0, 0, 0, 0, 0, 0, 0, 0, 0, 0, 0, 0, 0, 0, 0, 0, 0, 0, 0, 0, 0, 0, 0, 0, 0, 0, 0, 0, 0, 0, 0, 0, 0, 0, 0, 0, 0, 0, 0, 0, 0, 0, 0, 0, 0, 0, 0, 0, 0, 0, 0, 0, 0, 0, 0, 0, 591, 0, 0, 0, 0, 0, 0, 0, 0, 0, 0, 0, 0, 0, 0, 0, 0, 0, 0, 0, 0, 0, 0, 0, 0, 0, 0, 0, 591, 0, 0, 0, 0, 0, 0, 1046, 1046, 1046, 0, 0, 0, 0, 0, 0, 591, 1046, 1046, 1046, 1046, 0, 0, 0, 0, 0, 0, 0, 591, 0, 0, 0, 0, 0, 0, 0, 0, 1046, 0, 0, 0, 0, 0, 591, 0, 0, 0, 0, 0, 0, 0, 0, 0, 0, 0, 0, 591, 0, 0, 0, 0, 0, 0, 0, 0, 0, 591, 0, 0, 0, 591, 0, 0, 0, 0, 0, 53, 54, 55, 56, 57, 952, 953, 954, 591, 591, 0, 0, 591, 0, 0, 0, 0, 0, 0, 591, 0, 591, 0, 0, 0, 0, 0, 0, 144, 145, 146, 147, 148, 0, 0, 0, 591, 0, 0, 0, 0, 0, 0, 0, 0, 0, 0, 0, 591, 0, 0, 0, 0, 0, 0, 0, 235, 236, 237, 238, 239, 0, 0, 0, 591, 0, 0, 0, 0, 1683, 0, 0, 0, 0, 0, 0, 0, 0, 0, 0, 0, 0, 0, 0, 0, 327, 328, 329, 330, 0, 0, 0, 591, 0, 0, 0, 0, 1774, 1775, 0, 0, 0, 0, 0, 0, 0, 0, 0, 0, 0, 0, 0, 0, 0, 0, 0, 0, 0, 0, 0, 591, 0, 0, 0, 0, 1865, 1866, 1867, 0, 0, 0, 0, 0, 0, 0, 0, 0, 0, 0, 0, 0, 0, 0, 0, 0, 0, 0, 0, 591, 0, 0, 0, 591, 1956, 1957, 1958, 1959, 0, 591, 591, 591, 591, 0, 0, 0, 0, 0, 0, 0, 0, 0, 0, 0, 0, 0, 0, 591, 0, 0, 0, 0, 0, 0, 0, 0, 0, 0, 0, 0, 0, 0, 0, 0, 0, 0, 0, 0, 0, 0, 0, 0, 0, 0, 0, 591, 0, 0, 0, 0, 0, 0, 0, 0, 0, 0, 0, 0, 1046, 1046, 1046, 1046, 1046, 591, 0, 0, 0, 0, 0, 0, 0, 0, 0, 591, 0, 0, 0, 0, 0, 0, 0, 0, 0, 0, 0, 0, 1046, 0, 0, 0, 591, 0, 0, 0, 0, 0, 0, 0, 0, 0, 0, 591, 0, 0, 0, 0, 0, 0, 0, 0, 0, 0, 0, 0, 1046, 0, 0, 0, 0, 0, 0, 0, 0, 0, 591, 591, 591, 591, 591, 591, 0, 0, 0, 591, 0, 0, 0, 0, 0, 0, 0, 0, 591, 0, 0, 0, 0, 0, 0, 0, 0, 0, 0, 0, 0, 0, 0, 0, 0, 0, 0, 0, 591, 591, 591, 591, 0, 0, 0, 0, 0, 0, 0, 0, 0, 0, 0, 0, 0, 0, 0, 0, 0, 0, 0, 0, 0, 0, 0, 0, 0, 0, 0, 1046, 0, 0, 0, 1046, 1046, 1046, 1046, 1046, 1046, 0, 0, 0, 1046, 1046, 1046, 1046, 1046, 0, 0, 0, 0, 0, 0, 0, 0, 0, 0, 1046, 0, 0, 0, 1046, 0, 0, 0, 0, 1046, 0, 0, 0, 1046, 0, 0, 0, 1046, 0, 0, 0, 0, 0, 0, 0, 0, 0, 0, 1046, 0, 0, 0, 1046, 0, 0, 0, 0, 1046, 0, 0, 0, 1046, 0, 0, 0, 1046, 0, 0, 591, 0, 0, 0, 591, 0, 0, 0, 1046, 0, 0, 0, 1046, 0, 0, 0, 0, 1046, 0, 0, 0, 0, 0, 0, 0, 0, 0, 0, 591, 0, 0, 0, 0, 1046, 0, 0, 0, 0, 0, 0, 0, 0, 0, 0, 0, 0, 0, 0, 0, 0, 0, 0, 0, 0, 0, 0, 591, 0, 0, 0, 0, 0, 0, 0, 0, 0, 0, 0, 0, 0, 0, 0, 0, 0, 0, 0, 0, 0, 0, 0, 0, 0, 0, 0, 591, 0, 0, 0, 0, 0, 0, 0, 0, 0, 0, 0, 0, 0, 0, 0, 0, 0, 0, 0, 1046, 1046, 1046, 1046, 1046, 591, 591, 591, 591, 0, 0, 0, 0, 0, 0, 0, 1046, 1046, 1046, 1046, 1046, 1046, 1046, 1046, 1046, 1046, 1046, 1046, 1046, 0, 0, 0, 0, 0, 0, 591, 591, 591, 591, 591, 591, 0, 0, 0, 0, 0, 0, 0, 0, 0, 0, 0, 0, 0, 0, 0, 0, 0, 0, 0, 0, 0, 0, 0, 0, 0, 0, 0, 0, 0, 0, 0, 0, 0, 0, 0, 0, 0, 0, 0, 0, 0, 0, 0, 0, 0, 0, 0, 0, 0, 0, 0, 0, 0, 0, 0, 0, 0, 0, 0, 0, 0, 0, 0, 0, 0, 0, 0, 0, 0, 0, 0, 0, 0, 0, 0, 0, 0, 0, 0, 0, 0, 0, 0, 0, 1046, 1046, 1046, 1046, 1046, 1046, 1046, 1046, 1046, 1046, 1046, 1046, 1046, 1046, 1046, 1046, 0, 0, 0, 0, 0, 0, 0, 0, 0, 0, 0, 0, 0, 0, 0, 0, 0, 0, 0, 0, 0, 0, 0, 0, 0, 0, 0, 0, 0, 0, 0, 0, 0, 0, 0, 0, 0, 0, 0, 0, 0, 0, 0, 0, 0, 0, 0, 0, 0, 0, 0, 0, 0, 0, 0, 0, 0, 0, 0, 0, 0, 0, 0, 0, 0, 0, 0, 0, 0, 0, 0, 0, 0, 0, 0, 0, 0, 0, 0, 0, 0, 0, 0, 0, 0, 0, 0, 1046, 0, 0, 0, 0, 0, 0, 0, 0, 0, 0, 0, 0, 0, 0, 0, 0, 0, 0, 0, 0, 0, 0, 0, 0, 0, 0, 0, 0, 0, 0, 0, 0, 0, 0, 0, 0, 0, 0, 0, 0, 0, 0, 0, 0, 0, 0, 0, 0, 0, 0, 0, 0, 0, 0, 0, 0, 0, 0, 0, 0, 0, 0, 0, 0, 1046, 1046, 1046, 0, 0, 0, 0, 0, 0, 0, 0, 0, 0, 0, 0, 1046, 1046, 1046, 1046, 1046, 0, 0, 0, 0, 0, 0, 0, 0, 0, 0, 0, 0, 0, 0, 0, 0, 0, 0, 0, 0, 0, 0, 0, 0, 0, 0, 0, 0, 0, 0, 0, 0, 0, 0, 0, 0, 0, 0, 0, 0, 0, 0, 0, 0, 0, 0, 0, 0, 0, 0, 0, 0, 0, 0, 0, 0, 0, 0, 0, 0, 0, 0, 0, 0, 0, 0, 0, 0, 0, 0, 0, 0, 0, 0, 0, 0, 0, 0, 0, 0, 0, 0, 0, 0, 0, 0, 0, 0, 0, 0, 0, 0, 0, 0, 0, 0, 0, 0, 0, 0, 0, 1046, 0, 0, 0, 0, 0, 0, 0, 0, 0, 0, 0, 0, 0, 0, 0, 0, 0, 0, 0, 0, 0, 0, 0, 0, 0, 0, 0, 0, 0, 0, 0, 0, 0, 0, 0, 0, 0, 0, 0, 0, 0, 0, 0, 0, 0, 0, 0, 0, 0, 0, 0, 0, 0, 0, 0, 0, 0, 0, 0, 0, 0, 0, 1046, 1046, 1046, 1046, 0, 0, 0, 0, 0, 0, 0, 0, 0, 0, 0, 0, 0, 0, 0, 0, 0, 0, 0, 0, 0, 0, 0, 0, 0, 0, 0, 0, 0, 0, 0, 0, 0, 0, 0, 0, 0, 0, 0, 0, 0, 0, 0, 0, 0, 0, 0, 0, 0, 0, 0, 0, 0, 0, 0, 0, 0, 0, 0, 0, 0, 0, 0, 0, 1046, 1046, 1046, 0, 0, 0, 0, 0, 0, 0, 0, 0, 0, 0, 0, 0, 0, 0, 0, 0, 0, 0, 0, 0, 0, 0, 0, 0, 0, 0, 0, 0, 0, 0, 0, 0, 0, 0, 0, 0, 0, 0, 0, 0, 0, 0, 0, 0, 0, 0, 0, 0, 0, 0, 0, 0, 0, 0, 0, 0, 0, 0, 0, 0, 0, 0, 0, 0, 0, 0, 0, 0, 0, 0, 0, 0, 0, 0, 0, 0, 0, 0, 0, 0, 0, 0, 0, 0, 0, 0, 0, 0, 0, 1046, 0, 0, 0, 0, 0, 0, 0, 0, 0, 0, 0, 0, 0, 0, 0, 0, 0, 0, 0, 0, 0, 0, 0, 0, 0, 0, 0, 0, 0, 0, 0, 0, 0, 0, 0, 0, 0, 0, 0, 0, 0, 0, 0, 0, 0, 0, 0, 0, 0, 0, 0, 0, 0, 0, 0, 0, 0, 0, 0, 0, 0, 0, 0, 0, 0, 0, 0, 0, 0, 0, 0, 0, 0, 0, 0, 0, 0, 0, 0, 0, 0, 0, 0, 0, 0, 0, 0, 0, 0, 0, 1046, 1046, 1046, 1046, 0, 0, 0, 0, 0, 0, 0, 0, 0, 0, 0, 0, 0, 0, 0, 0, 0, 0, 0, 0, 0, 0, 0, 0, 0, 0, 0, 0, 0, 0, 0, 0, 0, 0, 0, 0, 0, 0, 0, 0, 0, 0, 0, 0, 0, 0, 0, 0, 0, 0, 0, 0, 0, 0, 0, 0, 0, 0, 0, 0, 0, 0, 0, 0, 0, 0, 0, 0, 0, 0, 0, 0, 0, 0, 0, 0, 0, 0, 0, 0, 0, 0, 0, 0, 0, 0, 591, 0, 0, 0, 0, 0, 0, 0, 0, 0, 0, 0, 0, 0, 0, 0, 0, 0, 0, 0, 0, 0, 0, 0, 0, 0, 0, 0, 0, 0, 0, 0, 0, 0, 0, 0, 0, 0, 0, 0, 0, 0, 0, 0, 0, 0, 0, 0, 0, 0, 0, 0, 0, 0, 0, 0, 0, 0, 0, 0, 0, 0, 0, 0, 0, 0, 0, 0, 0, 0, 0, 0, 0, 0, 0, 0, 0, 0, 0, 0, 0, 0, 0, 0, 0, 0, 2082, 2087, 2084, 2085, 0, 0, 0, 0, 0, 0, 0, 0, 0, 0, 0, 0, 0, 0, 0, 0, 0, 0, 0, 0, 0, 0, 0, 0, 2173, 2178, 2179, 2176, 0, 0, 0, 0, 0, 0, 0, 0, 0, 0, 0, 0, 0, 0, 0, 0, 0, 0, 0, 0, 0, 0, 0, 0, 2264, 2269, 2270, 2267, 0, 0, 0, 0, 0, 0, 0, 0, 0, 0, 0, 0, 0, 0, 0, 0, 0, 0, 0, 0, 0, 0, 0, 0, 2355, 2356, 2357, 2358, 0, 0, 0, 0, 0, 0, 0, 0, 0, 0, 0, 0, 0, 0, 0, 0, 0, 0, 0, 0, 0, 0, 0, 0, 0, 0, 0, 0, 0, 0, 0, 0, 0, 0, 0, 0, 0, 0, 0, 0, 0, 1181, 1182, 1182, 1182, 1183, 0, 0, 0, 0, 0, 0, 0, 0, 0, 0, 0, 0, 0, 0, 0, 0, 0, 0, 0, 0, 0, 0, 0, 0, 0, 0, 0, 0, 0, 0, 0, 0, 0, 0, 0, 0, 0, 0, 1722, 1723, 1724, 1725, 2160, 2161, 0, 0, 0, 0, 0, 0, 0, 0, 0, 0, 0, 0, 0, 0, 0, 0, 0, 0, 0, 0, 0, 0, 1813, 1814, 1815, 1816, 2251, 2252, 2253, 0, 0, 0, 0, 0, 0, 0, 0, 0, 0, 0, 0, 0, 0, 0, 0, 0, 0, 0, 0, 0, 1904, 1905, 1906, 1907, 2342, 2343, 2344, 2345, 0, 0, 0, 0, 0, 0, 0, 0, 0, 0, 0, 0, 0, 0, 0, 0, 0, 0, 0, 0, 1995, 1996, 1997, 1998, 2433, 2434, 2435, 2436, 0, 0, 0, 0, 0, 0, 0, 0, 0, 0, 0, 0, 0, 0, 0, 0, 0, 0, 0, 0, 1046, 1046, 1046, 1046, 1046, 1046, 1046, 1046, 1046, 1046, 1046, 1046, 1046, 1046, 1046, 1046, 1046, 1046, 1046, 1046, 1046, 1046, 1046, 1046, 1046, 0, 0, 0, 0, 0, 0, 0, 1046, 0, 0, 0, 0, 0, 0, 0, 0, 0, 0, 0, 0, 0, 0, 0, 0, 0, 0, 0, 0, 0, 0, 0, 0, 0, 0, 0, 1046, 0, 0, 0, 0, 0, 0, 0, 0, 0, 0, 0, 0, 0, 0, 0, 0, 0, 0, 0, 0, 0, 0, 0, 0, 0, 0, 0, 1046, 0, 0, 0, 0, 0, 0, 0, 0, 0, 0, 0, 0, 0, 0, 0, 0, 0, 0, 0, 0, 0, 0, 0, 0, 0, 0, 0, 1046, 0, 0, 0, 0, 0, 0, 1046, 0, 0, 0, 1046, 0, 0, 0, 0, 1046, 0, 0, 0, 1046, 0, 0, 0, 0, 0, 0, 0, 1046, 0, 0, 0, 0, 0, 0, 1046, 0, 0, 0, 1046, 0, 0, 0, 0, 1046, 0, 0, 0, 1046, 0, 0, 0, 0, 0, 0, 0, 1046, 0, 0, 0, 0, 0, 0, 1046, 0, 0, 0, 1046, 0, 0, 0, 0, 1046, 0, 0, 0, 1046, 0, 0, 0, 0, 0, 0, 0, 1046, 0, 0, 0, 1046, 1046, 1046, 1046, 1046, 1046, 1046, 1046, 1046, 1046, 1046, 1046, 1046, 1046, 1046, 1046, 1046, 1046, 1046, 1046, 0, 0, 0, 0, 1046, 0, 0, 0, 0, 0, 0, 0, 0, 0, 0, 0, 0, 0, 0, 0, 0, 0, 0, 0, 0, 0, 0, 0, 0, 0, 0, 0, 1046, 0, 0, 0, 0, 0, 0, 0, 0, 0, 0, 0, 0, 0, 0, 0, 0, 0, 0, 0, 0, 0, 0, 0, 0, 0, 0, 0, 1046, 0, 0, 0, 0, 0, 0, 0, 0, 0, 0, 0, 0, 0, 0, 0, 0, 0, 0, 0, 0, 0, 0, 0, 0, 0, 0, 0, 1046, 0, 0, 0, 0, 0, 0, 0, 0, 0, 0, 0, 0, 0, 0, 0, 0, 0, 0, 0, 0, 0, 0, 0, 0, 0, 0, 0, 1046, 1046, 1046, 1046, 1046, 1046, 1046, 1046, 1046, 1046, 1046, 1046, 1046, 1046, 1046, 1046, 1046, 1046, 1046, 1046, 0, 0, 0, 0, 0, 0, 0, 0, 0, 0, 0, 0, 0, 0, 0, 0, 0, 0, 0, 0, 0, 0, 0, 0, 0, 0, 0, 0, 0, 0, 0, 0, 0, 0, 0, 0, 0, 0, 0, 0, 0, 0, 0, 0, 0, 0, 0, 0, 0, 0, 0, 0, 0, 0, 0, 0, 0, 0, 0, 0, 0, 0, 0, 0, 0, 0, 0, 0, 0, 0, 0, 0, 0, 0, 0, 0, 0, 0, 0, 0, 0, 0, 0, 0, 0, 0, 0, 0, 500, 500, 500, 500, 500, 500, 500, 500, 500, 500, 500, 500, 500, 500, 500, 500, 500, 500, 500, 500, 500, 500, 500, 500, 500, 500, 500, 500],
   "height":100,
   "name":"Tile Layer 2",
   "offsetx":-3,
   "offsety":-182,
   "opacity":1,
   "properties":
   {
    "collides":true
   },
   "propertytypes":
   {
    "collides":"bool"
   },
   "type":"tilelayer",
   "visible":true,
   "width":28,
   "x":0,
   "y":0
  },
  {
   "draworder":"topdown",
   "height":0,
   "name":"Object Layer 1",
   "objects":[
    {
     "gid":2749,
     "height":16,
     "id":8,
     "name":"",
     "rotation":0,
     "type":"item",
     "visible":true,
     "width":16,
     "x":33,
     "y":81
    }],
   "offsetx":-4,
   "offsety":-182,
   "opacity":1,
   "type":"objectgroup",
   "visible":true,
   "width":0,
   "x":0,
   "y":0
  }],
 "nextobjectid":10,
 "orientation":"orthogonal",
 "renderorder":"right-down",
 "tileheight":16,
 "tilesets":[
  {
   "columns":91,
   "firstgid":1,
   "image":"..\/Downloads\/phaser-examples-master\/examples\/assets\/tilemaps\/tiles\/kenney.png",
   "imageheight":490,
   "imagewidth":1470,
   "margin":0,
   "name":"kenney",
   "properties":
   {
    "collides":"true"
   },
   "propertytypes":
   {
    "collides":"string"
   },
   "spacing":0,
   "tilecount":2730,
   "tileheight":16,
   "tiles":
   {
    "2052":
    {
     "objectgroup":
     {
      "draworder":"index",
      "height":0,
      "name":"box",
      "objects":[
       {
        "height":6,
        "id":1,
        "name":"",
        "rotation":0,
        "type":"",
        "visible":true,
        "width":1,
        "x":10,
        "y":-40
       },
       {
        "height":0,
        "id":2,
        "name":"",
        "rotation":0,
        "type":"",
        "visible":true,
        "width":0,
        "x":10,
        "y":-24
       }],
      "opacity":1,
      "type":"objectgroup",
      "visible":true,
      "width":0,
      "x":0,
      "y":0
     }
    }
   },
   "tilewidth":16
  },
  {
   "columns":11,
   "firstgid":2731,
   "image":"..\/Downloads\/phaser-examples-master\/examples\/assets\/tilemaps\/tiles\/super_mario.png",
   "imageheight":64,
   "imagewidth":176,
   "margin":0,
   "name":"super_mario",
   "spacing":0,
   "tilecount":44,
   "tileheight":16,
   "tilewidth":16
  },
  {
   "columns":50,
   "firstgid":2775,
   "image":"..\/git\/phaser\/v2\/resources\/tutorials\/Spanish\/02 Creando tu primer juego\/assets\/sky.png",
   "imageheight":600,
   "imagewidth":800,
   "margin":0,
   "name":"sky",
   "spacing":0,
   "tilecount":1850,
   "tileheight":16,
   "tilewidth":16
  }],
 "tilewidth":16,
 "version":1,
 "width":28
}